// Jest Snapshot v1, https://goo.gl/fbAQLP

exports[`renders component and matches snap 1`] = `
<div
  className="infinite-scroll-component__outerdiv"
  style={Object {}}
>
  <div
    className="infinite-scroll-component "
    style={
      Object {
        "WebkitOverflowScrolling": "touch",
        "height": "auto",
        "overflow": "auto",
      }
    }
  >
    <div
      className="w3-container w3-white w3-margin w3-padding-large show-loading-animation"
    >
      <div
        className="my-awesome-placeholder"
      >
        <div
          className="text-block"
          style={
            Object {
              "marginTop": 10,
              "width": "100%",
            }
          }
        >
          <div
            className="text-row"
            style={
              Object {
                "backgroundColor": "lightgrey",
                "height": "1em",
                "marginTop": 0,
                "maxHeight": "11.11111111111111%",
                "width": "97%",
              }
            }
          />
          <div
            className="text-row"
            style={
              Object {
                "backgroundColor": "lightgrey",
                "height": "1em",
                "marginTop": "0.7em",
                "maxHeight": "11.11111111111111%",
                "width": "100%",
              }
            }
          />
          <div
            className="text-row"
            style={
              Object {
                "backgroundColor": "lightgrey",
                "height": "1em",
                "marginTop": "0.7em",
                "maxHeight": "11.11111111111111%",
                "width": "94%",
              }
            }
          />
          <div
            className="text-row"
            style={
              Object {
                "backgroundColor": "lightgrey",
                "height": "1em",
                "marginTop": "0.7em",
                "maxHeight": "11.11111111111111%",
                "width": "90%",
              }
            }
          />
          <div
            className="text-row"
            style={
              Object {
                "backgroundColor": "lightgrey",
                "height": "1em",
                "marginTop": "0.7em",
                "maxHeight": "11.11111111111111%",
                "width": "98%",
              }
            }
          />
        </div>
        <div
          className="rect-shape"
          style={
            Object {
              "backgroundColor": "lightgrey",
              "height": 200,
              "marginBottom": 20,
              "marginRight": 10,
              "marginTop": 20,
              "width": "100%",
            }
          }
        />
        <div
          className="text-block"
          style={
            Object {
              "marginTop": 10,
              "width": "100%",
            }
          }
        >
          <div
            className="text-row"
            style={
              Object {
                "backgroundColor": "lightgrey",
                "height": "1em",
                "marginTop": 0,
                "maxHeight": "14.285714285714286%",
                "width": "97%",
              }
            }
          />
          <div
            className="text-row"
            style={
              Object {
                "backgroundColor": "lightgrey",
                "height": "1em",
                "marginTop": "0.7em",
                "maxHeight": "14.285714285714286%",
                "width": "100%",
              }
            }
          />
          <div
            className="text-row"
            style={
              Object {
                "backgroundColor": "lightgrey",
                "height": "1em",
                "marginTop": "0.7em",
                "maxHeight": "14.285714285714286%",
                "width": "94%",
              }
            }
          />
          <div
            className="text-row"
            style={
              Object {
                "backgroundColor": "lightgrey",
                "height": "1em",
                "marginTop": "0.7em",
                "maxHeight": "14.285714285714286%",
                "width": "90%",
              }
            }
          />
        </div>
        <div
          style={
            Object {
              "display": "flex",
              "justifyContent": "space-between",
              "marginTop": 20,
            }
          }
        >
          <div
            className="rect-shape"
            style={
              Object {
                "backgroundColor": "lightgrey",
                "height": 50,
                "marginRight": 10,
                "width": "25%",
              }
            }
          />
          <div
            className="rect-shape"
            style={
              Object {
                "backgroundColor": "lightgrey",
                "height": 50,
                "marginRight": 10,
                "width": "25%",
              }
            }
          />
        </div>
      </div>
    </div>
    <div
      className="w3-container w3-white w3-margin w3-padding-large show-loading-animation"
    >
      <div
        className="my-awesome-placeholder"
      >
        <div
          className="text-block"
          style={
            Object {
              "marginTop": 10,
              "width": "100%",
            }
          }
        >
          <div
            className="text-row"
            style={
              Object {
                "backgroundColor": "lightgrey",
                "height": "1em",
                "marginTop": 0,
                "maxHeight": "11.11111111111111%",
                "width": "97%",
              }
            }
          />
          <div
            className="text-row"
            style={
              Object {
                "backgroundColor": "lightgrey",
                "height": "1em",
                "marginTop": "0.7em",
                "maxHeight": "11.11111111111111%",
                "width": "100%",
              }
            }
          />
          <div
            className="text-row"
            style={
              Object {
                "backgroundColor": "lightgrey",
                "height": "1em",
                "marginTop": "0.7em",
                "maxHeight": "11.11111111111111%",
                "width": "94%",
              }
            }
          />
          <div
            className="text-row"
            style={
              Object {
                "backgroundColor": "lightgrey",
                "height": "1em",
                "marginTop": "0.7em",
                "maxHeight": "11.11111111111111%",
                "width": "90%",
              }
            }
          />
          <div
            className="text-row"
            style={
              Object {
                "backgroundColor": "lightgrey",
                "height": "1em",
                "marginTop": "0.7em",
                "maxHeight": "11.11111111111111%",
                "width": "98%",
              }
            }
          />
        </div>
        <div
          className="rect-shape"
          style={
            Object {
              "backgroundColor": "lightgrey",
              "height": 200,
              "marginBottom": 20,
              "marginRight": 10,
              "marginTop": 20,
              "width": "100%",
            }
          }
        />
        <div
          className="text-block"
          style={
            Object {
              "marginTop": 10,
              "width": "100%",
            }
          }
        >
          <div
            className="text-row"
            style={
              Object {
                "backgroundColor": "lightgrey",
                "height": "1em",
                "marginTop": 0,
                "maxHeight": "14.285714285714286%",
                "width": "97%",
              }
            }
          />
          <div
            className="text-row"
            style={
              Object {
                "backgroundColor": "lightgrey",
                "height": "1em",
                "marginTop": "0.7em",
                "maxHeight": "14.285714285714286%",
                "width": "100%",
              }
            }
          />
          <div
            className="text-row"
            style={
              Object {
                "backgroundColor": "lightgrey",
                "height": "1em",
                "marginTop": "0.7em",
                "maxHeight": "14.285714285714286%",
                "width": "94%",
              }
            }
          />
          <div
            className="text-row"
            style={
              Object {
                "backgroundColor": "lightgrey",
                "height": "1em",
                "marginTop": "0.7em",
                "maxHeight": "14.285714285714286%",
                "width": "90%",
              }
            }
          />
        </div>
        <div
          style={
            Object {
              "display": "flex",
              "justifyContent": "space-between",
              "marginTop": 20,
            }
          }
        >
          <div
            className="rect-shape"
            style={
              Object {
                "backgroundColor": "lightgrey",
                "height": 50,
                "marginRight": 10,
                "width": "25%",
              }
            }
          />
          <div
            className="rect-shape"
            style={
              Object {
                "backgroundColor": "lightgrey",
                "height": 50,
                "marginRight": 10,
                "width": "25%",
              }
            }
          />
        </div>
      </div>
    </div>
    <div
      className="w3-container w3-white w3-margin w3-padding-large show-loading-animation"
    >
      <div
        className="my-awesome-placeholder"
      >
        <div
          className="text-block"
          style={
            Object {
              "marginTop": 10,
              "width": "100%",
            }
          }
        >
          <div
            className="text-row"
            style={
              Object {
                "backgroundColor": "lightgrey",
                "height": "1em",
                "marginTop": 0,
                "maxHeight": "11.11111111111111%",
                "width": "97%",
              }
            }
          />
          <div
            className="text-row"
            style={
              Object {
                "backgroundColor": "lightgrey",
                "height": "1em",
                "marginTop": "0.7em",
                "maxHeight": "11.11111111111111%",
                "width": "100%",
              }
            }
          />
          <div
            className="text-row"
            style={
              Object {
                "backgroundColor": "lightgrey",
                "height": "1em",
                "marginTop": "0.7em",
                "maxHeight": "11.11111111111111%",
                "width": "94%",
              }
            }
          />
          <div
            className="text-row"
            style={
              Object {
                "backgroundColor": "lightgrey",
                "height": "1em",
                "marginTop": "0.7em",
                "maxHeight": "11.11111111111111%",
                "width": "90%",
              }
            }
          />
          <div
            className="text-row"
            style={
              Object {
                "backgroundColor": "lightgrey",
                "height": "1em",
                "marginTop": "0.7em",
                "maxHeight": "11.11111111111111%",
                "width": "98%",
              }
            }
          />
        </div>
        <div
          className="rect-shape"
          style={
            Object {
              "backgroundColor": "lightgrey",
              "height": 200,
              "marginBottom": 20,
              "marginRight": 10,
              "marginTop": 20,
              "width": "100%",
            }
          }
        />
        <div
          className="text-block"
          style={
            Object {
              "marginTop": 10,
              "width": "100%",
            }
          }
        >
          <div
            className="text-row"
            style={
              Object {
                "backgroundColor": "lightgrey",
                "height": "1em",
                "marginTop": 0,
                "maxHeight": "14.285714285714286%",
                "width": "97%",
              }
            }
          />
          <div
            className="text-row"
            style={
              Object {
                "backgroundColor": "lightgrey",
                "height": "1em",
                "marginTop": "0.7em",
                "maxHeight": "14.285714285714286%",
                "width": "100%",
              }
            }
          />
          <div
            className="text-row"
            style={
              Object {
                "backgroundColor": "lightgrey",
                "height": "1em",
                "marginTop": "0.7em",
                "maxHeight": "14.285714285714286%",
                "width": "94%",
              }
            }
          />
          <div
            className="text-row"
            style={
              Object {
                "backgroundColor": "lightgrey",
                "height": "1em",
                "marginTop": "0.7em",
                "maxHeight": "14.285714285714286%",
                "width": "90%",
              }
            }
          />
        </div>
        <div
          style={
            Object {
              "display": "flex",
              "justifyContent": "space-between",
              "marginTop": 20,
            }
          }
        >
          <div
            className="rect-shape"
            style={
              Object {
                "backgroundColor": "lightgrey",
                "height": 50,
                "marginRight": 10,
                "width": "25%",
              }
            }
          />
          <div
            className="rect-shape"
            style={
              Object {
                "backgroundColor": "lightgrey",
                "height": 50,
                "marginRight": 10,
                "width": "25%",
              }
            }
          />
        </div>
      </div>
    </div>
    <div
      className="w3-container w3-white w3-margin w3-padding-large show-loading-animation"
    >
      <div
        className="my-awesome-placeholder"
      >
        <div
          className="text-block"
          style={
            Object {
              "marginTop": 10,
              "width": "100%",
            }
          }
        >
          <div
            className="text-row"
            style={
              Object {
                "backgroundColor": "lightgrey",
                "height": "1em",
                "marginTop": 0,
                "maxHeight": "11.11111111111111%",
                "width": "97%",
              }
            }
          />
          <div
            className="text-row"
            style={
              Object {
                "backgroundColor": "lightgrey",
                "height": "1em",
                "marginTop": "0.7em",
                "maxHeight": "11.11111111111111%",
                "width": "100%",
              }
            }
          />
          <div
            className="text-row"
            style={
              Object {
                "backgroundColor": "lightgrey",
                "height": "1em",
                "marginTop": "0.7em",
                "maxHeight": "11.11111111111111%",
                "width": "94%",
              }
            }
          />
          <div
            className="text-row"
            style={
              Object {
                "backgroundColor": "lightgrey",
                "height": "1em",
                "marginTop": "0.7em",
                "maxHeight": "11.11111111111111%",
                "width": "90%",
              }
            }
          />
          <div
            className="text-row"
            style={
              Object {
                "backgroundColor": "lightgrey",
                "height": "1em",
                "marginTop": "0.7em",
                "maxHeight": "11.11111111111111%",
                "width": "98%",
              }
            }
          />
        </div>
        <div
          className="rect-shape"
          style={
            Object {
              "backgroundColor": "lightgrey",
              "height": 200,
              "marginBottom": 20,
              "marginRight": 10,
              "marginTop": 20,
              "width": "100%",
            }
          }
        />
        <div
          className="text-block"
          style={
            Object {
              "marginTop": 10,
              "width": "100%",
            }
          }
        >
          <div
            className="text-row"
            style={
              Object {
                "backgroundColor": "lightgrey",
                "height": "1em",
                "marginTop": 0,
                "maxHeight": "14.285714285714286%",
                "width": "97%",
              }
            }
          />
          <div
            className="text-row"
            style={
              Object {
                "backgroundColor": "lightgrey",
                "height": "1em",
                "marginTop": "0.7em",
                "maxHeight": "14.285714285714286%",
                "width": "100%",
              }
            }
          />
          <div
            className="text-row"
            style={
              Object {
                "backgroundColor": "lightgrey",
                "height": "1em",
                "marginTop": "0.7em",
                "maxHeight": "14.285714285714286%",
                "width": "94%",
              }
            }
          />
          <div
            className="text-row"
            style={
              Object {
                "backgroundColor": "lightgrey",
                "height": "1em",
                "marginTop": "0.7em",
                "maxHeight": "14.285714285714286%",
                "width": "90%",
              }
            }
          />
        </div>
        <div
          style={
            Object {
              "display": "flex",
              "justifyContent": "space-between",
              "marginTop": 20,
            }
          }
        >
          <div
            className="rect-shape"
            style={
              Object {
                "backgroundColor": "lightgrey",
                "height": 50,
                "marginRight": 10,
                "width": "25%",
              }
            }
          />
          <div
            className="rect-shape"
            style={
              Object {
                "backgroundColor": "lightgrey",
                "height": 50,
                "marginRight": 10,
                "width": "25%",
              }
            }
          />
        </div>
      </div>
    </div>
    <div
      className="w3-container w3-white w3-margin w3-padding-large show-loading-animation"
    >
      <div
        className="my-awesome-placeholder"
      >
        <div
          className="text-block"
          style={
            Object {
              "marginTop": 10,
              "width": "100%",
            }
          }
        >
          <div
            className="text-row"
            style={
              Object {
                "backgroundColor": "lightgrey",
                "height": "1em",
                "marginTop": 0,
                "maxHeight": "11.11111111111111%",
                "width": "97%",
              }
            }
          />
          <div
            className="text-row"
            style={
              Object {
                "backgroundColor": "lightgrey",
                "height": "1em",
                "marginTop": "0.7em",
                "maxHeight": "11.11111111111111%",
                "width": "100%",
              }
            }
          />
          <div
            className="text-row"
            style={
              Object {
                "backgroundColor": "lightgrey",
                "height": "1em",
                "marginTop": "0.7em",
                "maxHeight": "11.11111111111111%",
                "width": "94%",
              }
            }
          />
          <div
            className="text-row"
            style={
              Object {
                "backgroundColor": "lightgrey",
                "height": "1em",
                "marginTop": "0.7em",
                "maxHeight": "11.11111111111111%",
                "width": "90%",
              }
            }
          />
          <div
            className="text-row"
            style={
              Object {
                "backgroundColor": "lightgrey",
                "height": "1em",
                "marginTop": "0.7em",
                "maxHeight": "11.11111111111111%",
                "width": "98%",
              }
            }
          />
        </div>
        <div
          className="rect-shape"
          style={
            Object {
              "backgroundColor": "lightgrey",
              "height": 200,
              "marginBottom": 20,
              "marginRight": 10,
              "marginTop": 20,
              "width": "100%",
            }
          }
        />
        <div
          className="text-block"
          style={
            Object {
              "marginTop": 10,
              "width": "100%",
            }
          }
        >
          <div
            className="text-row"
            style={
              Object {
                "backgroundColor": "lightgrey",
                "height": "1em",
                "marginTop": 0,
                "maxHeight": "14.285714285714286%",
                "width": "97%",
              }
            }
          />
          <div
            className="text-row"
            style={
              Object {
                "backgroundColor": "lightgrey",
                "height": "1em",
                "marginTop": "0.7em",
                "maxHeight": "14.285714285714286%",
                "width": "100%",
              }
            }
          />
          <div
            className="text-row"
            style={
              Object {
                "backgroundColor": "lightgrey",
                "height": "1em",
                "marginTop": "0.7em",
                "maxHeight": "14.285714285714286%",
                "width": "94%",
              }
            }
          />
          <div
            className="text-row"
            style={
              Object {
                "backgroundColor": "lightgrey",
                "height": "1em",
                "marginTop": "0.7em",
                "maxHeight": "14.285714285714286%",
                "width": "90%",
              }
            }
          />
        </div>
        <div
          style={
            Object {
              "display": "flex",
              "justifyContent": "space-between",
              "marginTop": 20,
            }
          }
        >
          <div
            className="rect-shape"
            style={
              Object {
                "backgroundColor": "lightgrey",
                "height": 50,
                "marginRight": 10,
                "width": "25%",
              }
            }
          />
          <div
            className="rect-shape"
            style={
              Object {
                "backgroundColor": "lightgrey",
                "height": 50,
                "marginRight": 10,
                "width": "25%",
              }
            }
          />
        </div>
      </div>
    </div>
  </div>
</div>
`;
