// Jest Snapshot v1, https://goo.gl/fbAQLP

exports[`renders component and matches snap 1`] = `
<div
  className="w3-bar w3-black w3-hide-small w3-animate-top"
  style={
    Object {
      "opacity": 1,
      "pointerEvents": "none",
      "position": "sticky",
      "top": "0px",
      "transition": "all  0.2s  ease-in-out",
      "userSelect": "none",
      "zIndex": 10,
    }
  }
>
  <div>
    <a
      className="w3-bar-item w3-button"
      href="https://www.facebook.com"
      rel="noopener noreferrer"
      target="_blank"
    >
      <i
        className="fa fa-facebook-official"
      />
    </a>
    <a
      className="w3-bar-item w3-button"
      href="https://www.instagram.com"
      rel="noopener noreferrer"
      target="_blank"
    >
      <i
        className="fa fa-instagram"
      />
    </a>
    <a
      className="w3-bar-item w3-button"
      href="https://www.twitter.com"
      rel="noopener noreferrer"
      target="_blank"
    >
      <i
        className="fa fa-twitter"
      />
    </a>
    <span
      className="w3-right"
    >
      <a
        className="w3-bar-item w3-button"
        href="#search"
        rel="noopener noreferrer"
        target="_blank"
      >
        <i
          className="fa fa-search"
        />
      </a>
      <a
        className="w3-bar-item w3-button "
        href="#user"
        rel="noopener noreferrer"
        target="_blank"
      >
        <i
          className="fa fa-user"
        />
      </a>
      <a
        className="w3-bar-item w3-button"
        href="#menu"
        rel="noopener noreferrer"
        target="_blank"
      >
        <i
          className="fa fa-bars"
        />
      </a>
    </span>
  </div>
</div>
`;
